%
(Header)
(Generated by gcodetools from Inkscape.)
(Using default header. To add your own header create file "header" in the output dir.)
M3
(Header end.)
G21 (All units in mm)

(Start cutting path id: path3001)
(Change tool to Default tool)

G28

G00 Z30.000000
G00 X411.779740 Y325.953070

G01 Z5.000000 F2500.0(Penetrate)
G01 X431.466410 Y325.953070 Z5.000000 F2500.000000
G01 X518.415920 Y325.953070 Z5.000000
G02 X519.864580 Y325.900569 Z5.000000 I0.000000 J-20.012710
G03 X526.184436 Y325.546304 Z5.000000 I13.924911 J191.862958
G03 X532.387100 Y325.456605 Z5.000000 I4.888924 J123.567223
G03 X533.180940 Y325.953070 Z5.000000 I-0.009542 J0.898160
G03 X533.371810 Y327.548578 Z5.000000 I-2.127381 J1.063669
G02 X533.180940 Y329.234170 Z5.000000 I7.347376 J1.685592
G00 Z30.000000

(End cutting path id: path3001)


(Start cutting path id: path2997)
(Change tool to Default tool)

G00 Z30.000000
G00 X460.996450 Y508.054860

G01 Z5.000000 F2500.0(Penetrate)
G03 X461.190414 Y439.960466 Z5.000000 I772.768227 J-31.846279 F2500.000000
G02 X460.996450 Y371.888650 Z5.000000 I-683.896760 J-32.087490
G02 X459.076809 Y351.284638 Z5.000000 I-256.345834 J13.491876
G03 X457.715320 Y330.874740 Z5.000000 I152.300258 J-20.409898
G00 Z30.000000

(End cutting path id: path2997)


(Start cutting path id: path2999)
(Change tool to Default tool)

G00 Z30.000000
G00 X383.890280 Y508.054860

G01 Z5.000000 F2500.0(Penetrate)
G01 X406.858070 Y508.054860 Z5.000000 F2500.000000
G01 X470.839790 Y508.054860 Z5.000000
G03 X483.156836 Y508.491526 Z5.000000 I-0.000000 J173.931774
G02 X495.448130 Y508.054860 Z5.000000 I4.101127 J-57.767541
G02 X501.329565 Y507.006905 Z5.000000 I-12.269929 J-85.890626
G03 X506.932030 Y506.414310 Z5.000000 I5.602465 J26.186906
G00 Z30.000000

(End cutting path id: path2999)


(Start cutting path id: path2993)
(Change tool to Default tool)

G00 Z30.000000
G00 X336.314120 Y514.617090

G01 Z5.000000 F2500.0(Penetrate)
G02 X336.095728 Y453.803580 Z5.000000 I-1472.322784 J-25.119771 F2500.000000
G02 X333.033020 Y393.215890 Z5.000000 I-1154.657631 J27.996689
G02 X330.992930 Y372.666755 Z5.000000 I-464.143931 J35.703748
G03 X329.751900 Y352.201980 Z5.000000 I168.113182 J-20.464775
G00 Z30.000000

(End cutting path id: path2993)


(Start cutting path id: path2995)
(Change tool to Default tool)

G00 Z30.000000
G00 X221.475160 Y416.183680

G01 Z5.000000 F2500.0(Penetrate)
G03 X257.695333 Y420.037325 Z5.000000 I-123.265319 J1330.705520 F2500.000000
G03 X293.659660 Y427.667580 Z5.000000 I-24.561081 J204.337810
G03 X297.738345 Y429.394026 Z5.000000 I-6.401282 J20.803982
G02 X301.862430 Y430.948700 Z5.000000 I7.505909 J-13.663616
G02 X305.130147 Y431.026069 Z5.000000 I1.829725 J-8.233857
G03 X308.424660 Y430.948700 Z5.000000 I1.907007 J11.022016
G03 X314.097264 Y431.876915 Z5.000000 I-9.422244 J75.379789
G03 X328.872294 Y435.294812 Z5.000000 I-55.207640 J272.297912
G03 X343.234546 Y439.594988 Z5.000000 I-52.042875 J199.953632
G03 X347.798020 Y442.432590 Z5.000000 I-3.802520 J11.203596
G00 Z30.000000

(End cutting path id: path2995)


(Start cutting path id: path2991)
(Change tool to Default tool)

G00 Z30.000000
G00 X236.240170 Y517.898200

G01 Z5.000000 F2500.0(Penetrate)
G03 X236.274692 Y499.849303 Z5.000000 I126.850611 J-8.781854 F2500.000000
G02 X236.240170 Y481.805950 Z5.000000 I-120.308798 J-8.791524
G02 X234.599616 Y469.501782 Z5.000000 I-110.998172 J8.538290
G03 X232.959060 Y457.197600 Z5.000000 I109.357659 J-20.842465
G03 X232.596913 Y438.310737 Z5.000000 I163.586655 J-12.583599
G02 X232.959060 Y419.464810 Z5.000000 I-490.185260 J-18.845927
G01 X232.959060 Y340.718090 Z5.000000
G00 Z30.000000

(End cutting path id: path2991)


(Footer)
M5
G00 X0.0000 Y0.0000
M2
(Using default footer. To add your own footer create file "footer" in the output dir.)
(end)
%
